<?xml version="1.0" encoding="UTF-8" standalone="no"?>
<svg
   xmlns:dc="http://purl.org/dc/elements/1.1/"
   xmlns:cc="http://creativecommons.org/ns#"
   xmlns:rdf="http://www.w3.org/1999/02/22-rdf-syntax-ns#"
   xmlns:svg="http://www.w3.org/2000/svg"
   xmlns="http://www.w3.org/2000/svg"
   viewBox="0 0 91.053329 71.386665"
   height="71.386665"
   width="91.053329"
   xml:space="preserve"
   id="svg2"
   version="1.1"><metadata
     id="metadata8"><rdf:RDF><cc:Work
         rdf:about=""><dc:format>image/svg+xml</dc:format><dc:type
           rdf:resource="http://purl.org/dc/dcmitype/StillImage" /><dc:title></dc:title></cc:Work></rdf:RDF></metadata><defs
     id="defs6" /><g
     transform="matrix(1.3333333,0,0,-1.3333333,0,71.386667)"
     id="g10"><path
       d="M 0.340625,53.3531 H 67.9477 L 33.9141,0.348828 0.340625,53.3531"
       style="display:inline;fill:#231f20;fill-opacity:1;fill-rule:nonzero;stroke:none;stroke-width:0.1"
       id="path14" /><path
       d="M 0.340625,53.3531 H 67.9477 L 33.9141,0.348828 Z"
       style="display:inline;fill:none;stroke:#231f20;stroke-width:0.375;stroke-linecap:square;stroke-linejoin:miter;stroke-miterlimit:4;stroke-dasharray:none;stroke-opacity:1"
       id="path16" /><path
       d="M 6.03008,50.4047 H 62.3695 L 34.0082,6.23438 6.03008,50.4047"
       style="display:inline;fill:#ff0000;fill-opacity:1;fill-rule:nonzero;stroke:none;stroke-width:0.1"
       id="path18" /><path
       d="M 39.0004,10.4988 12.2496,52.743 8.4332,52.7438 37.0746,7.50547 39.0004,10.4988"
       style="display:inline;fill:#231f20;fill-opacity:1;fill-rule:nonzero;stroke:none;stroke-width:0.1"
       id="path20" /><path
       d="M 39.0004,10.4988 12.2496,52.743 8.4332,52.7438 37.0746,7.50547 Z"
       style="display:inline;fill:none;stroke:#231f20;stroke-width:0.375;stroke-linecap:square;stroke-linejoin:miter;stroke-miterlimit:4;stroke-dasharray:none;stroke-opacity:1"
       id="path22" /><path
       d="m 42.8902,16.6684 -22.8371,36.0746 -3.8168,8e-4 24.7293,-39.0715 1.9246,2.9961"
       style="display:inline;fill:#231f20;fill-opacity:1;fill-rule:nonzero;stroke:none;stroke-width:0.1"
       id="path24" /><path
       d="M 42.8902,16.6684 20.0531,52.743 16.2363,52.7438 40.9656,13.6723 Z"
       style="display:inline;fill:none;stroke:#231f20;stroke-width:0.375;stroke-linecap:square;stroke-linejoin:miter;stroke-miterlimit:4;stroke-dasharray:none;stroke-opacity:1"
       id="path26" /><path
       d="m 46.816,22.7895 -18.9601,29.9535 -3.8164,8e-4 20.8531,-32.952 1.9234,2.9977"
       style="display:inline;fill:#231f20;fill-opacity:1;fill-rule:nonzero;stroke:none;stroke-width:0.1"
       id="path28" /><path
       d="m 46.816,22.7895 -18.9601,29.9535 -3.8164,8e-4 20.8531,-32.952 z"
       style="display:inline;fill:none;stroke:#231f20;stroke-width:0.375;stroke-linecap:square;stroke-linejoin:miter;stroke-miterlimit:4;stroke-dasharray:none;stroke-opacity:1"
       id="path30" /><path
       d="m 50.7449,28.9059 -15.0855,23.8371 -3.8164,8e-4 16.9789,-26.8356 1.923,2.9977"
       style="display:inline;fill:#231f20;fill-opacity:1;fill-rule:nonzero;stroke:none;stroke-width:0.1"
       id="path32" /><path
       d="M 50.7449,28.9059 35.6594,52.743 31.843,52.7438 48.8219,25.9082 Z"
       style="display:inline;fill:none;stroke:#231f20;stroke-width:0.375;stroke-linecap:square;stroke-linejoin:miter;stroke-miterlimit:4;stroke-dasharray:none;stroke-opacity:1"
       id="path34" /><path
       d="m 54.6738,35.0227 -11.2113,17.7203 -3.8164,8e-4 13.1035,-20.7172 1.9242,2.9961"
       style="display:inline;fill:#231f20;fill-opacity:1;fill-rule:nonzero;stroke:none;stroke-width:0.1"
       id="path36" /><path
       d="M 54.6738,35.0227 43.4625,52.743 39.6461,52.7438 52.7496,32.0266 Z"
       style="display:inline;fill:none;stroke:#231f20;stroke-width:0.375;stroke-linecap:square;stroke-linejoin:miter;stroke-miterlimit:4;stroke-dasharray:none;stroke-opacity:1"
       id="path38" /><path
       d="m 58.5996,41.1441 -7.334,11.5989 -3.8164,8e-4 9.2293,-14.6004 1.9211,3.0007"
       style="display:inline;fill:#231f20;fill-opacity:1;fill-rule:nonzero;stroke:none;stroke-width:0.1"
       id="path40" /><path
       d="m 58.5996,41.1441 -7.334,11.5989 -3.8164,8e-4 9.2293,-14.6004 z"
       style="display:inline;fill:none;stroke:#231f20;stroke-width:0.375;stroke-linecap:square;stroke-linejoin:miter;stroke-miterlimit:4;stroke-dasharray:none;stroke-opacity:1"
       id="path42" /><path
       d="m 62.5289,47.2605 -3.4601,5.4825 -3.8165,8e-4 5.3524,-8.4793 1.9242,2.996"
       style="display:inline;fill:#231f20;fill-opacity:1;fill-rule:nonzero;stroke:none;stroke-width:0.1"
       id="path44" /><path
       d="m 62.5289,47.2605 -3.4601,5.4825 -3.8165,8e-4 5.3524,-8.4793 z"
       style="display:inline;fill:none;stroke:#231f20;stroke-width:0.375;stroke-linecap:square;stroke-linejoin:miter;stroke-miterlimit:4;stroke-dasharray:none;stroke-opacity:1"
       id="path46" /><path
       d="m 38.5273,46.4445 2.4856,-0.1035 -0.1297,-2.382 h -2.5629 l 0.207,2.4855"
       style="display:inline;fill:#ffffff;fill-opacity:1;fill-rule:nonzero;stroke:none;stroke-width:0.1"
       id="path48" /><path
       d="M 38.5273,46.4445 41.0129,46.341 40.8832,43.959 H 38.3203 Z"
       style="display:inline;fill:none;stroke:#231f20;stroke-width:0.5;stroke-linecap:square;stroke-linejoin:miter;stroke-miterlimit:4;stroke-dasharray:none;stroke-opacity:1"
       id="path50" /><path
       d="m 19.6809,46.134 -0.4145,-11.3914 2.4856,-0.1035 0.3105,2.589 2.0707,-2.589 2.7965,0.2074 -2.6926,3.4172 4.0387,8.4914 H 25.273 l -2.4855,-5.5918 v 4.9707 h -3.1066"
       style="display:inline;fill:#ffffff;fill-opacity:1;fill-rule:nonzero;stroke:none;stroke-width:0.1"
       id="path52" /><path
       d="m 19.6809,46.134 -0.4145,-11.3914 2.4856,-0.1035 0.3105,2.589 2.0707,-2.589 2.7965,0.2074 -2.6926,3.4172 4.0387,8.4914 H 25.273 l -2.4855,-5.5918 v 4.9707 z"
       style="display:inline;fill:none;stroke:#231f20;stroke-width:0.5;stroke-linecap:square;stroke-linejoin:miter;stroke-miterlimit:4;stroke-dasharray:none;stroke-opacity:1"
       id="path54" /><path
       d="m 29.0004,46.548 h 8.1809 l -0.5176,-2.589 -4.4528,-0.4141 -0.4144,-2.8996 3.1066,-0.3105 -0.1035,-1.7606 H 31.3824 L 30.657,34.6391 h -2.1742 l 0.3106,8.1808 1.5015,0.8805 -1.6051,0.0516 0.3106,2.796"
       style="display:inline;fill:#ffffff;fill-opacity:1;fill-rule:nonzero;stroke:none;stroke-width:0.1"
       id="path56" /><path
       d="m 29.0004,46.548 h 8.1809 l -0.5176,-2.589 -4.4528,-0.4141 -0.4144,-2.8996 3.1066,-0.3105 -0.1035,-1.7606 H 31.3824 L 30.657,34.6391 h -2.1742 l 0.3106,8.1808 1.5015,0.8805 -1.6051,0.0516 z"
       style="display:inline;fill:none;stroke:#231f20;stroke-width:0.5;stroke-linecap:square;stroke-linejoin:miter;stroke-miterlimit:4;stroke-dasharray:none;stroke-opacity:1"
       id="path58" /><path
       d="m 38.3461,43.2344 h 2.4855 l -0.4398,-6.7313 c 0,-0.5695 -0.1813,-0.6988 -0.4148,-0.932 l -3.6239,-3.4172 h -1.6566 l 2.6918,3.4172 c 0.2976,0.2977 0.518,0.5695 0.518,1.0355 l 0.4398,6.6278"
       style="display:inline;fill:#ffffff;fill-opacity:1;fill-rule:nonzero;stroke:none;stroke-width:0.1"
       id="path60" /><path
       d="m 38.3461,43.2344 h 2.4855 l -0.4398,-6.7313 c 0,-0.5695 -0.1813,-0.6988 -0.4148,-0.932 l -3.6239,-3.4172 h -1.6566 l 2.6918,3.4172 c 0.2976,0.2977 0.518,0.5695 0.518,1.0355 z"
       style="display:inline;fill:none;stroke:#231f20;stroke-width:0.5;stroke-linecap:square;stroke-linejoin:miter;stroke-miterlimit:4;stroke-dasharray:none;stroke-opacity:1"
       id="path62" /><path
       d="m 44.223,45.7195 h 2.8219 v 0.518 h 2.977 l -0.4141,-5.2812 h -2.4851 v 3.1066 c -1.7344,-0.8285 -2.0973,-3.2363 -2.0973,-4.9969 0,-1.7601 2.4851,-3.4949 3.7539,-4.4269 h -2.5891 c -1.7082,1.1652 -3.9347,2.6406 -3.9347,5.2816 0,2.177 0.7508,3.909 1.9675,5.7988"
       style="display:inline;fill:#ffffff;fill-opacity:1;fill-rule:nonzero;stroke:none;stroke-width:0.1"
       id="path64" /><path
       d="m 44.223,45.7195 h 2.8219 v 0.518 h 2.977 l -0.4141,-5.2812 h -2.4851 v 3.1066 c -1.7344,-0.8285 -2.0973,-3.2363 -2.0973,-4.9969 0,-1.7601 2.4851,-3.4949 3.7539,-4.4269 h -2.5891 c -1.7082,1.1652 -3.9347,2.6406 -3.9347,5.2816 0,2.177 0.7508,3.909 1.9675,5.7988 z"
       style="display:inline;fill:none;stroke:#231f20;stroke-width:0.5;stroke-linecap:square;stroke-linejoin:miter;stroke-miterlimit:4;stroke-dasharray:none;stroke-opacity:1"
       id="path66" /><path
       d="m 37.223,23.159 h 1.1446 l 0.1594,1.6539 H 37.4773 L 37.223,23.159"
       style="display:inline;fill:#ffffff;fill-opacity:1;fill-rule:nonzero;stroke:none;stroke-width:0.1"
       id="path68" /><path
       d="m 37.223,23.159 h 1.1446 l 0.1594,1.6539 h -1.0497 z"
       style="display:inline;fill:none;stroke:#231f20;stroke-width:0.5;stroke-linecap:square;stroke-linejoin:miter;stroke-miterlimit:4;stroke-dasharray:none;stroke-opacity:1"
       id="path70" /><path
       d="m 41.9934,30.6957 h 4.2925 l -4.3566,-7.5367 -0.8586,0.7312 3.3707,5.5653 -2.6391,-0.0321 0.1911,1.2723"
       style="display:inline;fill:#ffffff;fill-opacity:1;fill-rule:nonzero;stroke:none;stroke-width:0.1"
       id="path72" /><path
       d="m 41.9934,30.6957 h 4.2925 l -4.3566,-7.5367 -0.8586,0.7312 3.3707,5.5653 -2.6391,-0.0321 z"
       style="display:inline;fill:none;stroke:#231f20;stroke-width:0.5;stroke-linecap:square;stroke-linejoin:miter;stroke-miterlimit:4;stroke-dasharray:none;stroke-opacity:1"
       id="path74" /><path
       d="m 27.7816,27.4055 c 0.5,-0.375 0.7375,-1.0664 0.611,-1.8481 -0.1938,-1.2015 -1.2363,-2.1898 -2.3278,-2.207 -1.0918,-0.0172 -1.8191,0.943 -1.625,2.1445 0.1184,0.734 0.55,1.4137 1.1192,1.8156 -0.3086,0.3821 -0.4574,0.9586 -0.366,1.6071 0.1644,1.1703 1.0488,2.1332 1.9746,2.15 0.9258,0.0164 1.5429,-0.9188 1.3785,-2.0891 -0.0871,-0.6187 -0.375,-1.1797 -0.7645,-1.573"
       style="display:inline;fill:#ffffff;fill-opacity:1;fill-rule:nonzero;stroke:none;stroke-width:0.1"
       id="path76" /><path
       d="m 27.7816,27.4055 c 0.5,-0.375 0.7375,-1.0664 0.611,-1.8481 -0.1938,-1.2015 -1.2363,-2.1898 -2.3278,-2.207 -1.0918,-0.0172 -1.8191,0.943 -1.625,2.1445 0.1184,0.734 0.55,1.4137 1.1192,1.8156 -0.3086,0.3821 -0.4574,0.9586 -0.366,1.6071 0.1644,1.1703 1.0488,2.1332 1.9746,2.15 0.9258,0.0164 1.5429,-0.9188 1.3785,-2.0891 -0.0871,-0.6187 -0.375,-1.1797 -0.7645,-1.573 z"
       style="display:inline;fill:none;stroke:#231f20;stroke-width:0.5;stroke-linecap:square;stroke-linejoin:miter;stroke-miterlimit:4;stroke-dasharray:none;stroke-opacity:1"
       id="path78" /><path
       d="m 26.1227,24.3973 c 0.4003,-0.0766 0.8515,0.3668 1.0082,0.9894 0.1562,0.6231 -0.0414,1.1895 -0.4418,1.2656 -0.4004,0.0766 -0.8524,-0.3664 -1.009,-0.9894 -0.1563,-0.6227 0.0418,-1.1895 0.4426,-1.2656"
       style="display:inline;fill:#231f20;fill-opacity:1;fill-rule:nonzero;stroke:none;stroke-width:0.1"
       id="path80" /><path
       d="m 26.1227,24.3973 c 0.4003,-0.0766 0.8515,0.3668 1.0082,0.9894 0.1562,0.6231 -0.0414,1.1895 -0.4418,1.2656 -0.4004,0.0766 -0.8524,-0.3664 -1.009,-0.9894 -0.1563,-0.6227 0.0418,-1.1895 0.4426,-1.2656 z"
       style="display:inline;fill:none;stroke:#231f20;stroke-width:0.5;stroke-linecap:square;stroke-linejoin:miter;stroke-miterlimit:4;stroke-dasharray:none;stroke-opacity:1"
       id="path82" /><path
       d="m 26.6199,27.848 c 0.3403,-0.0742 0.7231,0.3575 0.8559,0.9641 0.1328,0.6067 -0.0356,1.1586 -0.375,1.2328 -0.3395,0.0746 -0.7231,-0.357 -0.8551,-0.9636 -0.1328,-0.6067 0.0348,-1.1586 0.3742,-1.2333"
       style="display:inline;fill:#231f20;fill-opacity:1;fill-rule:nonzero;stroke:none;stroke-width:0.1"
       id="path84" /><path
       d="m 26.6199,27.848 c 0.3403,-0.0742 0.7231,0.3575 0.8559,0.9641 0.1328,0.6067 -0.0356,1.1586 -0.375,1.2328 -0.3395,0.0746 -0.7231,-0.357 -0.8551,-0.9636 -0.1328,-0.6067 0.0348,-1.1586 0.3742,-1.2333 z"
       style="display:inline;fill:none;stroke:#231f20;stroke-width:0.5;stroke-linecap:square;stroke-linejoin:miter;stroke-miterlimit:4;stroke-dasharray:none;stroke-opacity:1"
       id="path86" /><path
       d="m 35.7637,27.7699 c -0.8903,-2.0351 -3.0211,-4.6746 -3.0211,-4.6746 l -0.668,0.8586 c 0.6996,0.827 1.302,1.902 1.302,1.902 h -0.0375 c -1.1809,0.0035 -1.9625,1.125 -1.7512,2.5246 0.2133,1.4148 1.3609,2.5777 2.5621,2.598 1.2012,0.0203 2.002,-1.1101 1.7887,-2.5246 -0.034,-0.2223 -0.0907,-0.4379 -0.1668,-0.6441 l -0.0082,-0.0399"
       style="display:inline;fill:#ffffff;fill-opacity:1;fill-rule:nonzero;stroke:none;stroke-width:0.1"
       id="path88" /><path
       d="m 35.7637,27.7699 c -0.8903,-2.0351 -3.0211,-4.6746 -3.0211,-4.6746 l -0.668,0.8586 c 0.6996,0.827 1.302,1.902 1.302,1.902 h -0.0375 c -1.1809,0.0035 -1.9625,1.125 -1.7512,2.5246 0.2133,1.4148 1.3609,2.5777 2.5621,2.598 1.2012,0.0203 2.002,-1.1101 1.7887,-2.5246 -0.034,-0.2223 -0.0907,-0.4379 -0.1668,-0.6441 z"
       style="display:inline;fill:none;stroke:#231f20;stroke-width:0.5;stroke-linecap:square;stroke-linejoin:miter;stroke-miterlimit:4;stroke-dasharray:none;stroke-opacity:1"
       id="path90" /><path
       d="m 33.391,27.0883 c 0.5094,-0.0899 1.0836,0.4316 1.2828,1.1648 0.1989,0.7328 -0.0527,1.4 -0.5621,1.4903 -0.5094,0.0894 -1.084,-0.4317 -1.2824,-1.1649 -0.1992,-0.7332 0.0523,-1.4004 0.5617,-1.4902"
       style="display:inline;fill:#231f20;fill-opacity:1;fill-rule:nonzero;stroke:none;stroke-width:0.1"
       id="path92" /><path
       d="m 33.391,27.0883 c 0.5094,-0.0899 1.0836,0.4316 1.2828,1.1648 0.1989,0.7328 -0.0527,1.4 -0.5621,1.4903 -0.5094,0.0894 -1.084,-0.4317 -1.2824,-1.1649 -0.1992,-0.7332 0.0523,-1.4004 0.5617,-1.4902 z"
       style="display:inline;fill:none;stroke:#231f20;stroke-width:0.5;stroke-linecap:square;stroke-linejoin:miter;stroke-miterlimit:4;stroke-dasharray:none;stroke-opacity:1"
       id="path94" /></g></svg>